…
```{r}
tibble(
  a = lubridate::now() + runif(1e3) * 86400,
  b = lubridate::today() + runif(1e3) * 30,
  c = 1:1e3,
  d = runif(1e3),
  e = sample(letters, 1e3, replace = TRUE)
)
#> # A tibble: 1,000 x 5
#>   a                   b              c     d e    
#>   <dttm>              <date>     <int> <dbl> <chr>
#> 1 2020-01-15 20:43:23 2020-01-22     1 0.368 n    
#> 2 2020-01-16 14:48:32 2020-01-27     2 0.612 l    
#> 3 2020-01-16 09:12:12 2020-02-06     3 0.415 p    
#> 4 2020-01-15 22:33:29 2020-02-05     4 0.212 m    
#> 5 2020-01-15 18:57:45 2020-02-02     5 0.733 i    
#> 6 2020-01-16 05:58:42 2020-01-29     6 0.460 n    
#> # … with 994 more rows
…
